[
	{ "keys": ["ctrl+с"], "command": "copy" },
	{ "keys": ["ctrl+я"], "command": "undo" },
	{ "keys": ["ctrl+shift+я"], "command": "redo" },
	{ "keys": ["ctrl+ы"], "command": "save" },
	{ "keys": ["ctrl+ф"], "command": "select_all" },
	{ "keys": ["ctrl+ц"], "command": "close" },
	{ "keys": ["ctrl+т"], "command": "new_file" },
	{ "keys": ["ctrl+."], "command": "toggle_comment", "args": { "block": false } },
	{ "keys": ["ctrl+shift+."], "command": "toggle_comment", "args": { "block": true } },
]